%YAML 1.1
%TAG !u! tag:unity3d.com,2011:
--- !u!162 &1
EditorUserSettings:
  m_ObjectHideFlags: 0
  serializedVersion: 4
  m_ConfigSettings:
    RecentlyUsedSceneGuid-0:
      value: 0506575355050a5f595f5d7642715a44124f4d7c792d75662c284e6be4b6306a
      flags: 0
    RecentlyUsedSceneGuid-1:
      value: 0005015001005c5a5b595a7642220b44144e1d727a2a7262742a4560b1e1303b
      flags: 0
    RecentlyUsedSceneGuid-2:
      value: 065304515204590d0c0d5c214622064447164a7a7a7176677b28456be3b1623e
      flags: 0
    RecentlyUsedSceneGuid-3:
      value: 515250075c0c595e5f5a5e71122159444e4e4a2f7a7d7f602f284d66b4b76661
      flags: 0
    RecentlyUsedSceneGuid-4:
      value: 5a0903565d565c595c5b557313260944134e197a7f707f33292b4f63b3e66d3d
      flags: 0
    RecentlyUsedSceneGuid-5:
      value: 06500c005c5151595d5f547141770c44434e4e2e292b2261757f1e35e6b9673c
      flags: 0
    vcSharedLogLevel:
      value: 0d5e400f0650
      flags: 0
  m_VCAutomaticAdd: 1
  m_VCDebugCom: 0
  m_VCDebugCmd: 0
  m_VCDebugOut: 0
  m_SemanticMergeMode: 2
  m_DesiredImportWorkerCount: 5
  m_StandbyImportWorkerCount: 2
  m_IdleImportWorkerShutdownDelay: 60000
  m_VCShowFailedCheckout: 1
  m_VCOverwriteFailedCheckoutAssets: 1
  m_VCProjectOverlayIcons: 1
  m_VCHierarchyOverlayIcons: 1
  m_VCOtherOverlayIcons: 1
  m_VCAllowAsyncUpdate: 1
  m_ArtifactGarbageCollection: 1
